<svg xmlns="http://www.w3.org/2000/svg" xmlns:xlink="http://www.w3.org/1999/xlink" width="425" height="700" viewBox="0 0 2480 4000">
    <defs>
        <style>
            .cls-1 {
            opacity: 0.98;
            }
        </style>
    </defs>
    <image id="nukk" x="0" y="0" width="1715" height="3490" 
    xlink:href="img/period1/moemang-period1_0013_nukk.png" class="nukk"></image>
    <image id="jalad_1" data-name="jalad 1" x="0" y="0" width="1715" height="3490" 
    xlink:href="img/period3/period3-jalad-1.png" data-clothing-id="3-1" class="nukk d-none" data-category="jalad"></image>
    <image id="alakeha_1" data-name="alakeha 1" x="0" y="0" width="1715" height="3490"  
    xlink:href="img/period3/period3-alakeha-1.png" data-clothing-id="3-2" class="nukk d-none" data-category="alakeha"></image>
    <image id="alakeha_2" data-name="alakeha 2" x="0" y="0" width="1715" height="3490"  
    xlink:href="img/period3/period3-alakeha-2.png" data-clothing-id="3-3" class="nukk d-none" data-category="alakeha"></image>
    <image id="kogukeha_1" data-name="kogukeha 1" x="0" y="0" width="1715" height="3490"
    xlink:href="img/period3/period3-kogukeha-1.png" data-clothing-id="3-4" class="nukk d-none" data-category="kogukeha"></image>
    <image id="jalad_2" data-name="jalad 2" x="0" y="0" width="1158" height="422"  
    xlink:href="img/period3/period3-jalad-2.png" data-clothing-id="3-5" class="nukk d-none" data-category="jalad"></image>
    <image id="pea_1" data-name="pea 1" x="0" y="0" width="1715" height="3490" 
    xlink:href="img/period3/period3-pea-1.png" data-clothing-id="3-6" class="nukk d-none" data-category="pea"></image>
    <image id="pea_2" data-name="pea 2" x="0" y="0" width="560" height="574"  
    xlink:href="img/period3/period3-pea-2.png" data-clothing-id="3-7" class="nukk d-none" data-category="pea"></image>
    <image id="ülakeha_1" data-name="ülakeha 1" x="0" y="0" width="1308" height="1122"  
    xlink:href="img/period3/period3-ülakeha-1.png" data-clothing-id="3-8" class="nukk d-none" data-category="ülakeha"></image>
    <image id="ülakeha_2" data-name="ülakeha 1" x="0" y="0" width="544" height="1191"  
    xlink:href="img/period3/period3-ülakeha-2.png" data-clothing-id="3-9" class="nukk d-none" data-category="ülakeha"></image>
    <image id="ülakeha_3" data-name="ülakeha 3" x="0" y="0" width="2479" height="3508"  
    xlink:href="img/period3/period3-ülakeha-3.png" data-clothing-id="3-10" class="nukk d-none" data-category="ülakeha"></image>
    <image id="käed_1" data-name="käed 1" x="0" y="0" width="993" height="1344"  
    xlink:href="img/period3/period3-käed-1.png" data-clothing-id="3-11" class="nukk d-none" data-category="käed"></image>
    <image id="käed_2" data-name="käed 2" x="0" y="0" width="993" height="1344"  
    xlink:href="img/period3/period3-käed-2.png" data-clothing-id="3-12" class="nukk d-none" data-category="käed"></image>
</svg>